sims/main_tb.vcd
$date
	Tue Apr 01 19:26:34 2025
$end
$version
	Icarus Verilog
$end
$timescale
	1ps
$end
$scope module main_tb $end
$var wire 1 ! clk_5MHz $end
$var wire 1 " mins $end
$var wire 1 # secs $end
$var wire 7 $ seg [6:0] $end
$var wire 4 % an [3:0] $end
$var wire 1 & LED_on $end
$var wire 1 ' LED_en $end
$var reg 1 ( clk $end
$var reg 1 ) cook_time $end
$var reg 1 * enable $end
$var reg 1 + mins_raw $end
$var reg 1 , rst $end
$var reg 1 - secs_raw $end
$var reg 1 . start $end
$scope module uut $end
$var wire 1 ( clk $end
$var wire 1 / clk_5MHz $end
$var wire 1 ) cook_time $end
$var wire 1 0 done $end
$var wire 1 * enable $end
$var wire 1 + mins_raw $end
$var wire 1 , rst $end
$var wire 1 - secs_raw $end
$var wire 1 . start $end
$var wire 16 1 time_out [15:0] $end
$var wire 7 2 seg [6:0] $end
$var wire 1 3 secs $end
$var wire 1 4 mins $end
$var wire 1 5 clk_500Hz $end
$var wire 1 6 clk_1Hz $end
$var wire 4 7 an [3:0] $end
$var parameter 32 8 INIT $end
$var parameter 32 9 PAUSE $end
$var parameter 32 : RESUME $end
$var parameter 32 ; TCONFIG $end
$var reg 1 ' LED_en $end
$var reg 1 & LED_on $end
$var reg 12 < count_in [11:0] $end
$var reg 2 = next_state [1:0] $end
$var reg 2 > state [1:0] $end
$scope module clock_1Hz $end
$var wire 1 / clk $end
$var wire 1 , rst $end
$var parameter 32 ? N $end
$var reg 1 6 clk_out $end
$var reg 23 @ counter [22:0] $end
$upscope $end
$scope module clock_500Hz $end
$var wire 1 / clk $end
$var wire 1 , rst $end
$var parameter 32 A N $end
$var reg 1 5 clk_out $end
$var reg 15 B counter [14:0] $end
$upscope $end
$scope module converter $end
$var wire 12 C count [11:0] $end
$var reg 4 D min_ones [3:0] $end
$var reg 4 E min_tens [3:0] $end
$var reg 4 F sec_ones [3:0] $end
$var reg 4 G sec_tens [3:0] $end
$var reg 16 H time_out [15:0] $end
$upscope $end
$scope module display $end
$var wire 16 I bcd [15:0] $end
$var wire 1 5 clk $end
$var wire 1 , rst $end
$var reg 4 J an [3:0] $end
$var reg 4 K current_digit [3:0] $end
$var reg 2 L digit [1:0] $end
$var reg 7 M seg [6:0] $end
$upscope $end
$scope module mins_debounce $end
$var wire 1 + btn $end
$var wire 1 / clk $end
$var wire 1 , rst $end
$var parameter 32 N N $end
$var reg 1 O btn_sync $end
$var reg 16 P counter [15:0] $end
$var reg 1 4 debounced_btn $end
$upscope $end
$scope module secs_debounce $end
$var wire 1 - btn $end
$var wire 1 / clk $end
$var wire 1 , rst $end
$var parameter 32 Q N $end
$var reg 1 R btn_sync $end
$var reg 16 S counter [15:0] $end
$var reg 1 3 debounced_btn $end
$upscope $end
$upscope $end
$upscope $end
$enddefinitions $end
$comment Show the parameter values. $end
$dumpall
b1100001101010000 Q
b1100001101010000 N
b10011100010000 A
b10011000100101101000000 ?
b1 ;
b11 :
b10 9
b0 8
$end
#0
$dumpvars
b0 S
0R
b0 P
0O
b1 M
b0 L
b0 K
b1000 J
b0 I
b0 H
b0 G
b0 F
b0 E
b0 D
b0 C
bx B
bx @
b0 >
b0 =
b0 <
b1000 7
x6
x5
04
03
b1 2
b0 1
z0
z/
0.
0-
1,
0+
1*
0)
0(
1'
x&
b1000 %
b1 $
z#
z"
0!
$end
#100000
1!
1(
#200000
0!
0(
#300000
1!
1(
#400000
0!
0(
#500000
1!
1(
#600000
0!
0(
#700000
1!
1(
#800000
0!
0(
#900000
1!
1(
#1000000
0!
0(
0,
#1100000
1!
1(
#1200000
0!
0(
#1300000
1!
1(
#1400000
0!
0(
#1500000
1!
1(
#1600000
0!
0(
#1700000
1!
1(
#1800000
0!
0(
#1900000
1!
1(
#2000000
0!
0(
#2100000
1!
1(
#2200000
0!
0(
#2300000
1!
1(
#2400000
0!
0(
#2500000
1!
1(
#2600000
0!
0(
#2700000
1!
1(
#2800000
0!
0(
#2900000
1!
1(
#3000000
0!
0(
1+
#3100000
1!
1(
#3200000
0!
0(
#3300000
1!
1(
#3400000
0!
0(
#3500000
1!
1(
#3600000
0!
0(
#3700000
1!
1(
#3800000
0!
0(
#3900000
1!
1(
#4000000
0!
0(
#4100000
1!
1(
#4200000
0!
0(
#4300000
1!
1(
#4400000
0!
0(
#4500000
1!
1(
#4600000
0!
0(
#4700000
1!
1(
#4800000
0!
0(
#4900000
1!
1(
#5000000
0!
0(
0+
#5100000
1!
1(
#5200000
0!
0(
#5300000
1!
1(
#5400000
0!
0(
#5500000
1!
1(
#5600000
0!
0(
#5700000
1!
1(
#5800000
0!
0(
#5900000
1!
1(
#6000000
b1 =
0!
0(
1)
#6100000
1!
1(
#6200000
0!
0(
#6300000
1!
1(
#6400000
0!
0(
#6500000
1!
1(
#6600000
0!
0(
#6700000
1!
1(
#6800000
0!
0(
#6900000
1!
1(
#7000000
0!
0(
#7100000
1!
1(
#7200000
0!
0(
#7300000
1!
1(
#7400000
0!
0(
#7500000
1!
1(
#7600000
0!
0(
#7700000
1!
1(
#7800000
0!
0(
#7900000
1!
1(
#8000000
0!
0(
1+
#8100000
1!
1(
#8200000
0!
0(
#8300000
1!
1(
#8400000
0!
0(
#8500000
1!
1(
#8600000
0!
0(
#8700000
1!
1(
#8800000
0!
0(
#8900000
1!
1(
#9000000
0!
0(
#9100000
1!
1(
#9200000
0!
0(
#9300000
1!
1(
#9400000
0!
0(
#9500000
1!
1(
#9600000
0!
0(
#9700000
1!
1(
#9800000
0!
0(
#9900000
1!
1(
#10000000
0!
0(
0+
#10100000
1!
1(
#10200000
0!
0(
#10300000
1!
1(
#10400000
0!
0(
#10500000
1!
1(
#10600000
0!
0(
#10700000
1!
1(
#10800000
0!
0(
#10900000
1!
1(
#11000000
0!
0(
#11100000
1!
1(
#11200000
0!
0(
#11300000
1!
1(
#11400000
0!
0(
#11500000
1!
1(
#11600000
0!
0(
#11700000
1!
1(
#11800000
0!
0(
#11900000
1!
1(
#12000000
0!
0(
#12100000
1!
1(
#12200000
0!
0(
#12300000
1!
1(
#12400000
0!
0(
#12500000
1!
1(
#12600000
0!
0(
#12700000
1!
1(
#12800000
0!
0(
#12900000
1!
1(
#13000000
0!
0(
1-
#13100000
1!
1(
#13200000
0!
0(
#13300000
1!
1(
#13400000
0!
0(
#13500000
1!
1(
#13600000
0!
0(
#13700000
1!
1(
#13800000
0!
0(
#13900000
1!
1(
#14000000
0!
0(
#14100000
1!
1(
#14200000
0!
0(
#14300000
1!
1(
#14400000
0!
0(
#14500000
1!
1(
#14600000
0!
0(
#14700000
1!
1(
#14800000
0!
0(
#14900000
1!
1(
#15000000
0!
0(
0-
#15100000
1!
1(
#15200000
0!
0(
#15300000
1!
1(
#15400000
0!
0(
#15500000
1!
1(
#15600000
0!
0(
#15700000
1!
1(
#15800000
0!
0(
#15900000
1!
1(
#16000000
b0 =
0!
0(
0)
#16100000
1!
1(
#16200000
0!
0(
#16300000
1!
1(
#16400000
0!
0(
#16500000
1!
1(
#16600000
0!
0(
#16700000
1!
1(
#16800000
0!
0(
#16900000
1!
1(
#17000000
0!
0(
#17100000
1!
1(
#17200000
0!
0(
#17300000
1!
1(
#17400000
0!
0(
#17500000
1!
1(
#17600000
0!
0(
#17700000
1!
1(
#17800000
0!
0(
#17900000
1!
1(
#18000000
0!
0(
1-
#18100000
1!
1(
#18200000
0!
0(
#18300000
1!
1(
#18400000
0!
0(
#18500000
1!
1(
#18600000
0!
0(
#18700000
1!
1(
#18800000
0!
0(
#18900000
1!
1(
#19000000
0!
0(
#19100000
1!
1(
#19200000
0!
0(
#19300000
1!
1(
#19400000
0!
0(
#19500000
1!
1(
#19600000
0!
0(
#19700000
1!
1(
#19800000
0!
0(
#19900000
1!
1(
#20000000
0!
0(
0-
#20100000
1!
1(
#20200000
0!
0(
#20300000
1!
1(
#20400000
0!
0(
#20500000
1!
1(
#20600000
0!
0(
#20700000
1!
1(
#20800000
0!
0(
#20900000
1!
1(
#21000000
b10 =
0!
0(
1.
#21100000
1!
1(
#21200000
0!
0(
#21300000
1!
1(
#21400000
0!
0(
#21500000
1!
1(
#21600000
0!
0(
#21700000
1!
1(
#21800000
0!
0(
#21900000
1!
1(
#22000000
0!
0(
#22100000
1!
1(
#22200000
0!
0(
#22300000
1!
1(
#22400000
0!
0(
#22500000
1!
1(
#22600000
0!
0(
#22700000
1!
1(
#22800000
0!
0(
#22900000
1!
1(
#23000000
0!
0(
1+
#23100000
1!
1(
#23200000
0!
0(
#23300000
1!
1(
#23400000
0!
0(
#23500000
1!
1(
#23600000
0!
0(
#23700000
1!
1(
#23800000
0!
0(
#23900000
1!
1(
#24000000
0!
0(
#24100000
1!
1(
#24200000
0!
0(
#24300000
1!
1(
#24400000
0!
0(
#24500000
1!
1(
#24600000
0!
0(
#24700000
1!
1(
#24800000
0!
0(
#24900000
1!
1(
#25000000
0!
0(
0+
#25100000
1!
1(
#25200000
0!
0(
#25300000
1!
1(
#25400000
0!
0(
#25500000
1!
1(
#25600000
0!
0(
#25700000
1!
1(
#25800000
0!
0(
#25900000
1!
1(
#26000000
b1 =
0!
0(
1)
#26100000
1!
1(
#26200000
0!
0(
#26300000
1!
1(
#26400000
0!
0(
#26500000
1!
1(
#26600000
0!
0(
#26700000
1!
1(
#26800000
0!
0(
#26900000
1!
1(
#27000000
0!
0(
#27100000
1!
1(
#27200000
0!
0(
#27300000
1!
1(
#27400000
0!
0(
#27500000
1!
1(
#27600000
0!
0(
#27700000
1!
1(
#27800000
0!
0(
#27900000
1!
1(
#28000000
0!
0(
1+
#28100000
1!
1(
#28200000
0!
0(
#28300000
1!
1(
#28400000
0!
0(
#28500000
1!
1(
#28600000
0!
0(
#28700000
1!
1(
#28800000
0!
0(
#28900000
1!
1(
#29000000
0!
0(
#29100000
1!
1(
#29200000
0!
0(
#29300000
1!
1(
#29400000
0!
0(
#29500000
1!
1(
#29600000
0!
0(
#29700000
1!
1(
#29800000
0!
0(
#29900000
1!
1(
#30000000
0!
0(
0+
